{
 "HB_F14_CPT_RIO_L_BREAKERS_01": {
  "reflMult": -1.0,
  "reflAdd": 0.0,
  "specMult": 1.0,
  "specAdd": 1.0,
  "specSelect": 1,
  "albedoLevel": 0.045000001788139343262,
  "albedoContrast": 0.97600001096725463867
 },
 "HB_F14_CPT_FRONT_RFRAME": {
  "reflMult": -1.0,
  "reflAdd": 0.0,
  "specMult": 1.0,
  "specAdd": 1.0,
  "specSelect": 1,
  "albedoLevel": 0.045000001788139343262,
  "albedoContrast": 0.97600001096725463867
 },
 "HB_F14_Sealant_Salmon": {
  "reflMult": -1.0,
  "reflAdd": 0.0,
  "specMult": 1.0,
  "specAdd": 1.0,
  "specSelect": 1,
  "albedoLevel": 0.045000001788139343262,
  "albedoContrast": 0.97600001096725463867
 },
 "HB_F14_CPT_FRONTSEALANT": {
  "reflMult": -1.0,
  "reflAdd": 0.0,
  "specMult": 1.0,
  "specAdd": 1.0,
  "specSelect": 1,
  "albedoLevel": 0.045000001788139343262,
  "albedoContrast": 0.97600001096725463867
 },
 "BLOCKER": {
  "reflMult": -1.0,
  "reflAdd": 0.0,
  "specMult": 1.0,
  "specAdd": 1.0,
  "specSelect": 1,
  "albedoLevel": 0.045000001788139343262,
  "albedoContrast": 0.97600001096725463867
 },
 "HB_F14_PILOT_COMPILED_01": {
  "reflMult": -1.0,
  "reflAdd": 0.0,
  "specMult": 1.0,
  "specAdd": 1.0,
  "specSelect": 1,
  "albedoLevel": 0.045000001788139343262,
  "albedoContrast": 0.97600001096725463867
 },
 "HB_F14_CPT_FRONT_LFRAME": {
  "reflMult": -1.0,
  "reflAdd": 0.0,
  "specMult": 1.0,
  "specAdd": 1.0,
  "specSelect": 1,
  "albedoLevel": 0.045000001788139343262,
  "albedoContrast": 0.97600001096725463867
 },
 "HB_F14_CPT_FRONT_07": {
  "reflMult": -1.0,
  "reflAdd": 0.0,
  "specMult": 1.0,
  "specAdd": 1.0,
  "specSelect": 1,
  "albedoLevel": 0.045000001788139343262,
  "albedoContrast": 0.97600001096725463867
 },
 "HB_F14_CPT_RFRAME": {
  "reflMult": -1.0,
  "reflAdd": 0.0,
  "specMult": 1.0,
  "specAdd": 1.0,
  "specSelect": 1,
  "albedoLevel": 0.045000001788139343262,
  "albedoContrast": 0.97600001096725463867
 },
 "HB_F14_CPT_GLARESHIELD": {
  "reflMult": -1.0,
  "reflAdd": 0.0,
  "specMult": 1.0,
  "specAdd": 1.0,
  "specSelect": 1,
  "albedoLevel": 0.045000001788139343262,
  "albedoContrast": 0.97600001096725463867
 },
 "HB_F14_CPT_WINDSCREEN": {
  "reflMult": 1.0,
  "reflAdd": 0.0,
  "specMult": -1.2999999523162841797,
  "specAdd": 1.0,
  "specSelect": 1,
  "albedoLevel": 0.0,
  "albedoContrast": 1.0
 },
 "HB_F14_CPT_FRONT_06": {
  "reflMult": -1.0,
  "reflAdd": 0.0,
  "specMult": 1.0,
  "specAdd": 1.0,
  "specSelect": 1,
  "albedoLevel": 0.045000001788139343262,
  "albedoContrast": 0.97600001096725463867
 },
 "HB_F14_CPT_THROTTLE": {
  "reflMult": -1.0,
  "reflAdd": 0.0,
  "specMult": 1.0,
  "specAdd": 1.0,
  "specSelect": 1,
  "albedoLevel": 0.045000001788139343262,
  "albedoContrast": 0.97600001096725463867
 },
 "HB_F14_CPT_RIO_rBreakers_02": {
  "reflMult": -1.0,
  "reflAdd": 0.0,
  "specMult": 1.0,
  "specAdd": 1.0,
  "specSelect": 1,
  "albedoLevel": 0.045000001788139343262,
  "albedoContrast": 0.97600001096725463867
 },
 "HB_F14_CPT_GAUGE_GLASS_MILKY": {
  "reflMult": 1.0,
  "reflAdd": 0.0,
  "specMult": -1.2999999523162841797,
  "specAdd": 0.52799999713897705078,
  "specSelect": 1,
  "albedoLevel": 0.53899997472763061523,
  "albedoContrast": 1.0
 },
 "mirrors": {
  "reflMult": -1.0,
  "reflAdd": 0.0,
  "specMult": 1.0,
  "specAdd": 1.0,
  "specSelect": 1,
  "albedoLevel": 0.045000001788139343262,
  "albedoContrast": 0.97600001096725463867
 },
 "Material #15503": {
  "reflMult": -1.0,
  "reflAdd": 0.0,
  "specMult": 1.0,
  "specAdd": 1.0,
  "specSelect": 1,
  "albedoLevel": 0.045000001788139343262,
  "albedoContrast": 0.97600001096725463867
 },
 "HB_F14_CPT_KNICKNACKS": {
  "reflMult": -1.0,
  "reflAdd": 0.0,
  "specMult": 1.0,
  "specAdd": 1.0,
  "specSelect": 1,
  "albedoLevel": 0.045000001788139343262,
  "albedoContrast": 0.97600001096725463867
 },
 "05 - Default": {
  "reflMult": -1.0,
  "reflAdd": 0.0,
  "specMult": 1.0,
  "specAdd": 1.0,
  "specSelect": 1,
  "albedoLevel": 0.045000001788139343262,
  "albedoContrast": 0.97600001096725463867
 },
 "HB_F14_CPT_GLARESHIELD_FRONT": {
  "reflMult": -1.0,
  "reflAdd": 0.0,
  "specMult": 1.0,
  "specAdd": 1.0,
  "specSelect": 1,
  "albedoLevel": 0.045000001788139343262,
  "albedoContrast": 0.97600001096725463867
 },
 "HB_F14_CPT_RIO_FABRIC": {
  "reflMult": -1.0,
  "reflAdd": 0.0,
  "specMult": 1.0,
  "specAdd": 1.0,
  "specSelect": 1,
  "albedoLevel": 0.045000001788139343262,
  "albedoContrast": 0.97600001096725463867
 },
 "HB_F14_CPT_R_UNDERBASE": {
  "reflMult": -1.0,
  "reflAdd": 0.0,
  "specMult": 1.0,
  "specAdd": 1.0,
  "specSelect": 1,
  "albedoLevel": 0.045000001788139343262,
  "albedoContrast": 0.97600001096725463867
 },
 "HB_F14_CPT_STICK": {
  "reflMult": -1.0,
  "reflAdd": 0.0,
  "specMult": 1.0,
  "specAdd": 1.0,
  "specSelect": 1,
  "albedoLevel": 0.045000001788139343262,
  "albedoContrast": 0.97600001096725463867
 },
 "HB_F14_CPT_FRONT_04": {
  "reflMult": -1.0,
  "reflAdd": 0.0,
  "specMult": 1.0,
  "specAdd": 1.0,
  "specSelect": 1,
  "albedoLevel": 0.045000001788139343262,
  "albedoContrast": 0.97600001096725463867
 },
 "HB_F14_EXT_PILOT": {
  "reflMult": 1.0,
  "reflAdd": 0.0,
  "specMult": -1.2999999523162841797,
  "specAdd": 1.0,
  "specSelect": 1,
  "albedoLevel": 0.0,
  "albedoContrast": 1.0
 },
 "HB_F14_SeatFabric_01": {
  "reflMult": -1.0,
  "reflAdd": 0.0,
  "specMult": 1.0,
  "specAdd": 1.0,
  "specSelect": 1,
  "albedoLevel": 0.045000001788139343262,
  "albedoContrast": 0.97600001096725463867
 },
 "HB_F14_CPT_FRONT_08": {
  "reflMult": -1.0,
  "reflAdd": 0.0,
  "specMult": 1.0,
  "specAdd": 1.0,
  "specSelect": 1,
  "albedoLevel": 0.045000001788139343262,
  "albedoContrast": 0.97600001096725463867
 },
 "HB_F14_CPT_CANOPY_R_R": {
  "reflMult": -1.0,
  "reflAdd": 0.0,
  "specMult": 1.0,
  "specAdd": 1.0,
  "specSelect": 1,
  "albedoLevel": 0.045000001788139343262,
  "albedoContrast": 0.97600001096725463867
 },
 "HB_F14_CPT_RIO_L_BREAKERS_08": {
  "reflMult": -1.0,
  "reflAdd": 0.0,
  "specMult": 1.0,
  "specAdd": 1.0,
  "specSelect": 1,
  "albedoLevel": 0.045000001788139343262,
  "albedoContrast": 0.97600001096725463867
 },
 "HB_F14_CPT_GAUGES": {
  "reflMult": -1.0,
  "reflAdd": 0.0,
  "specMult": 1.0,
  "specAdd": 1.0,
  "specSelect": 1,
  "albedoLevel": 0.045000001788139343262,
  "albedoContrast": 0.97600001096725463867
 },
 "21 - Default": {
  "reflMult": -1.0,
  "reflAdd": 0.0,
  "specMult": 1.0,
  "specAdd": 1.0,
  "specSelect": 1,
  "albedoLevel": 0.045000001788139343262,
  "albedoContrast": 0.97600001096725463867
 },
 "HB_F14_CPT_SEATCUSHION": {
  "reflMult": -1.0,
  "reflAdd": 0.0,
  "specMult": 1.0,
  "specAdd": 1.0,
  "specSelect": 1,
  "albedoLevel": 0.045000001788139343262,
  "albedoContrast": 0.97600001096725463867
 },
 "HB_F14_CPT_SEATCOVER": {
  "reflMult": -1.0,
  "reflAdd": 0.0,
  "specMult": 1.0,
  "specAdd": 1.0,
  "specSelect": 1,
  "albedoLevel": 0.045000001788139343262,
  "albedoContrast": 0.97600001096725463867
 },
 "HB_F14_CPT_CANOPYGLASS": {
  "reflMult": 1.0,
  "reflAdd": 0.0,
  "specMult": -1.2999999523162841797,
  "specAdd": 1.0,
  "specSelect": 1,
  "albedoLevel": 0.0,
  "albedoContrast": 0.57700002193450927734
 },
 "HB_F14_CPT_SEALANTTAPE": {
  "reflMult": -1.0,
  "reflAdd": 0.0,
  "specMult": 1.0,
  "specAdd": 1.0,
  "specSelect": 1,
  "albedoLevel": 0.045000001788139343262,
  "albedoContrast": 0.97600001096725463867
 },
 "HB_F14_CPT_FRONT_05": {
  "reflMult": -1.0,
  "reflAdd": 0.0,
  "specMult": 1.0,
  "specAdd": 1.0,
  "specSelect": 1,
  "albedoLevel": 0.045000001788139343262,
  "albedoContrast": 0.97600001096725463867
 },
 "HB_F14_CPT_GAUGE_GLASS_FRONT": {
  "reflMult": -0.086000002920627593994,
  "reflAdd": 1.0,
  "specMult": -1.488000035285949707,
  "specAdd": -0.97600001096725463867,
  "specSelect": 1,
  "albedoLevel": 0.23999999463558197021,
  "albedoContrast": 1.0
 },
 "HB_F14_CPT_EJEC_01": {
  "reflMult": -1.0,
  "reflAdd": 0.0,
  "specMult": 1.0,
  "specAdd": 1.0,
  "specSelect": 1,
  "albedoLevel": 0.045000001788139343262,
  "albedoContrast": 0.97600001096725463867
 },
 "HB_F14_CPT_GRU7_01": {
  "reflMult": -1.0,
  "reflAdd": 0.0,
  "specMult": 1.0,
  "specAdd": 1.0,
  "specSelect": 1,
  "albedoLevel": 0.045000001788139343262,
  "albedoContrast": 0.97600001096725463867
 },
 "HB_F14_CPT_GRU7_02": {
  "reflMult": -1.0,
  "reflAdd": 0.0,
  "specMult": 1.0,
  "specAdd": 1.0,
  "specSelect": 1,
  "albedoLevel": 0.045000001788139343262,
  "albedoContrast": 0.97600001096725463867
 },
 "HB_F14_CPT_GRU7_03": {
  "reflMult": -1.0,
  "reflAdd": 0.0,
  "specMult": 1.0,
  "specAdd": 1.0,
  "specSelect": 1,
  "albedoLevel": 0.045000001788139343262,
  "albedoContrast": 0.97600001096725463867
 },
 "HB_F14_CPT_COMPASSBALL": {
  "reflMult": -1.0,
  "reflAdd": 0.0,
  "specMult": 1.0,
  "specAdd": 1.0,
  "specSelect": 1,
  "albedoLevel": 0.045000001788139343262,
  "albedoContrast": 0.97600001096725463867
 },
 "HB_F14_CPT_INT_PILOTLIGHTS": {
  "reflMult": 1.0,
  "reflAdd": 1.0,
  "specMult": -1.2039999961853027344,
  "specAdd": -3.0,
  "specSelect": 1,
  "albedoLevel": 0.0,
  "albedoContrast": 1.0
 },
 "HB_F14_CPT_GLARESHIELD_REAR": {
  "reflMult": -1.0,
  "reflAdd": 0.0,
  "specMult": 1.0,
  "specAdd": 1.0,
  "specSelect": 1,
  "albedoLevel": 0.045000001788139343262,
  "albedoContrast": 0.97600001096725463867
 },
 "HB_F14_CPT_ACMCOVERS": {
  "reflMult": -1.0,
  "reflAdd": 0.0,
  "specMult": 1.0,
  "specAdd": 1.0,
  "specSelect": 1,
  "albedoLevel": 0.045000001788139343262,
  "albedoContrast": 0.97600001096725463867
 },
 "HB_F14_CPT_LIGHTRAYS_RED": {
  "reflMult": 1.0,
  "reflAdd": 0.0,
  "specMult": -1.2999999523162841797,
  "specAdd": 1.0,
  "specSelect": 1,
  "albedoLevel": 0.0,
  "albedoContrast": 1.0
 },
 "HB_F14_CPT_TURN_N_BANK": {
  "reflMult": -1.0,
  "reflAdd": 0.0,
  "specMult": 1.0,
  "specAdd": 1.0,
  "specSelect": 1,
  "albedoLevel": 0.045000001788139343262,
  "albedoContrast": 0.97600001096725463867
 },
 "HB_F14_CPT_FRONT_03": {
  "reflMult": -1.0,
  "reflAdd": 0.0,
  "specMult": 1.0,
  "specAdd": 1.0,
  "specSelect": 1,
  "albedoLevel": 0.045000001788139343262,
  "albedoContrast": 0.97600001096725463867
 },
 "HB_F14_CPT_INT_PILOTLIGHTS_ACM": {
  "reflMult": 1.0,
  "reflAdd": 0.0,
  "specMult": -1.2999999523162841797,
  "specAdd": 1.0,
  "specSelect": 1,
  "albedoLevel": 0.0,
  "albedoContrast": 1.0
 },
 "HB_F14_CPT_UNDERSTRUCT": {
  "reflMult": -1.0,
  "reflAdd": 0.0,
  "specMult": 1.0,
  "specAdd": 1.0,
  "specSelect": 1,
  "albedoLevel": 0.045000001788139343262,
  "albedoContrast": 0.97600001096725463867
 },
 "HB_F14_CPT_THROTTLE_TRANSP": {
  "reflMult": 1.0,
  "reflAdd": 0.0,
  "specMult": -1.2999999523162841797,
  "specAdd": 1.0,
  "specSelect": 1,
  "albedoLevel": 0.10000000149011611938,
  "albedoContrast": 1.0
 },
 "HB_F14_EXT_PILOT_SUIT": {
  "reflMult": 1.0,
  "reflAdd": 0.0,
  "specMult": -1.2999999523162841797,
  "specAdd": 1.0,
  "specSelect": 1,
  "albedoLevel": 0.0,
  "albedoContrast": 1.0
 },
 "HB_F14_CPT_FRONT_TURN_GLASS": {
  "reflMult": -1.0,
  "reflAdd": 0.0,
  "specMult": 0.70800000429153442383,
  "specAdd": 1.0,
  "specSelect": 1,
  "albedoLevel": 0.4189999997615814209,
  "albedoContrast": 1.0
 },
 "HB_F14_EXT_PILOT_HELMET": {
  "reflMult": 1.0,
  "reflAdd": 0.0,
  "specMult": -1.2999999523162841797,
  "specAdd": 1.0,
  "specSelect": 1,
  "albedoLevel": 0.0,
  "albedoContrast": 1.0
 },
 "HB_F14_CPT_BOOT": {
  "reflMult": -1.0,
  "reflAdd": 0.0,
  "specMult": 1.0,
  "specAdd": 1.0,
  "specSelect": 1,
  "albedoLevel": 0.045000001788139343262,
  "albedoContrast": 0.97600001096725463867
 },
 "HB_F14_CPT_RIO_BUTTONLIGHTS_GREEN": {
  "reflMult": 1.0,
  "reflAdd": 0.0,
  "specMult": -1.2999999523162841797,
  "specAdd": 1.0,
  "specSelect": 1,
  "albedoLevel": 0.0,
  "albedoContrast": 1.0
 },
 "HB_F14_CPT_STICKTUBE": {
  "reflMult": -1.0,
  "reflAdd": 0.0,
  "specMult": 1.0,
  "specAdd": 1.0,
  "specSelect": 1,
  "albedoLevel": 0.045000001788139343262,
  "albedoContrast": 0.97600001096725463867
 },
 "HB_F14_CPT_FRONT_04_TRANSP": {
  "reflMult": 1.0,
  "reflAdd": 0.0,
  "specMult": -1.2999999523162841797,
  "specAdd": 1.0,
  "specSelect": 1,
  "albedoLevel": 0.039999999105930328369,
  "albedoContrast": 1.0
 },
 "HB_F14_CPT_FRONT_03_TRANSP": {
  "reflMult": 1.0,
  "reflAdd": 0.0,
  "specMult": -1.2999999523162841797,
  "specAdd": 1.0,
  "specSelect": 1,
  "albedoLevel": 0.039999999105930328369,
  "albedoContrast": 1.0
 },
 "HB_F14_SeatFabric_02": {
  "reflMult": -1.0,
  "reflAdd": 0.0,
  "specMult": 1.0,
  "specAdd": 1.0,
  "specSelect": 1,
  "albedoLevel": 0.045000001788139343262,
  "albedoContrast": 0.97600001096725463867
 },
 "HB_F14_CPT_INT_PILOTLIGHTS_INDEXER": {
  "reflMult": 1.0,
  "reflAdd": 0.0,
  "specMult": -1.2999999523162841797,
  "specAdd": 1.0,
  "specSelect": 1,
  "albedoLevel": 0.0,
  "albedoContrast": 1.0
 },
 "HB_F14_CPT_LIGHTRAYS": {
  "reflMult": 1.0,
  "reflAdd": 0.0,
  "specMult": -1.2999999523162841797,
  "specAdd": 1.0,
  "specSelect": 1,
  "albedoLevel": 0.0,
  "albedoContrast": 1.0
 },
 "HB_F14_CPT_RIOFLOOR05": {
  "reflMult": -1.0,
  "reflAdd": 0.0,
  "specMult": 1.0,
  "specAdd": 1.0,
  "specSelect": 1,
  "albedoLevel": 0.045000001788139343262,
  "albedoContrast": 0.97600001096725463867
 },
 "HB_F14_INT_FLAGS": {
  "reflMult": -1.0,
  "reflAdd": 0.0,
  "specMult": 1.0,
  "specAdd": 1.0,
  "specSelect": 1,
  "albedoLevel": 0.045000001788139343262,
  "albedoContrast": 0.97600001096725463867
 },
 "HB_F14_CPT_F110_PANEL": {
  "reflMult": -1.0,
  "reflAdd": 0.0,
  "specMult": 1.0,
  "specAdd": 1.0,
  "specSelect": 1,
  "albedoLevel": 0.045000001788139343262,
  "albedoContrast": 0.97600001096725463867
 },
 "HB_F14_CPT_RHORIZ_02": {
  "reflMult": -1.0,
  "reflAdd": 0.0,
  "specMult": 1.0,
  "specAdd": 1.0,
  "specSelect": 1,
  "albedoLevel": 0.045000001788139343262,
  "albedoContrast": 0.97600001096725463867
 },
 "HB_F14_CPT_CANOPY_T_L": {
  "reflMult": -1.0,
  "reflAdd": 0.0,
  "specMult": 1.0,
  "specAdd": 1.0,
  "specSelect": 1,
  "albedoLevel": 0.045000001788139343262,
  "albedoContrast": 0.97600001096725463867
 },
 "HB_F14_CPT_CANOPY_F_R": {
  "reflMult": -1.0,
  "reflAdd": 0.0,
  "specMult": 1.0,
  "specAdd": 1.0,
  "specSelect": 1,
  "albedoLevel": 0.045000001788139343262,
  "albedoContrast": 0.97600001096725463867
 },
 "HB_F14_CPT_CANOPY_F_L": {
  "reflMult": -1.0,
  "reflAdd": 0.0,
  "specMult": 1.0,
  "specAdd": 1.0,
  "specSelect": 1,
  "albedoLevel": 0.045000001788139343262,
  "albedoContrast": 0.97600001096725463867
 },
 "HB_F14_CPT_CANOPY_T_R": {
  "reflMult": -1.0,
  "reflAdd": 0.0,
  "specMult": 1.0,
  "specAdd": 1.0,
  "specSelect": 1,
  "albedoLevel": 0.045000001788139343262,
  "albedoContrast": 0.97600001096725463867
 },
 "HB_F14_CPT_CANOPY_R_L": {
  "reflMult": -1.0,
  "reflAdd": 0.0,
  "specMult": 1.0,
  "specAdd": 1.0,
  "specSelect": 1,
  "albedoLevel": 0.045000001788139343262,
  "albedoContrast": 0.97600001096725463867
 },
 "HB_F14_CPT_SEALANT_FRONT": {
  "reflMult": 1.0,
  "reflAdd": 0.0,
  "specMult": -1.2999999523162841797,
  "specAdd": 1.0,
  "specSelect": 1,
  "albedoLevel": 0.0,
  "albedoContrast": 1.0
 },
 "HB_F14_DETCORD": {
  "reflMult": 1.0,
  "reflAdd": 0.0,
  "specMult": -1.2999999523162841797,
  "specAdd": 1.0,
  "specSelect": 1,
  "albedoLevel": 0.0,
  "albedoContrast": 1.0
 },
 "mirrors_fake": {
  "reflMult": 0.15399999916553497314,
  "reflAdd": 1.0,
  "specMult": 0.043999999761581420898,
  "specAdd": 0.30000001192092895508,
  "specSelect": 1,
  "albedoLevel": 0.35899999737739562988,
  "albedoContrast": 0.75400000810623168945
 },
 "HB_F14_RIO_RANDOM_CRAP": {
  "reflMult": -1.0,
  "reflAdd": 0.0,
  "specMult": 1.0,
  "specAdd": 1.0,
  "specSelect": 1,
  "albedoLevel": 0.045000001788139343262,
  "albedoContrast": 0.97600001096725463867
 },
 "HB_F14_CPT_RIO_L_BREAKERS_07": {
  "reflMult": -1.0,
  "reflAdd": 0.0,
  "specMult": 1.0,
  "specAdd": 1.0,
  "specSelect": 1,
  "albedoLevel": 0.045000001788139343262,
  "albedoContrast": 0.97600001096725463867
 },
 "HB_F14_CPT_RIO_L_BREAKERS_05": {
  "reflMult": -1.0,
  "reflAdd": 0.0,
  "specMult": 1.0,
  "specAdd": 1.0,
  "specSelect": 1,
  "albedoLevel": 0.045000001788139343262,
  "albedoContrast": 0.97600001096725463867
 },
 "HB_F14_CPT_REARFRAME_L": {
  "reflMult": -1.0,
  "reflAdd": 0.0,
  "specMult": 1.0,
  "specAdd": 1.0,
  "specSelect": 1,
  "albedoLevel": 0.045000001788139343262,
  "albedoContrast": 0.97600001096725463867
 },
 "HB_F14_CPT_RIO_BACK_FRAME_02": {
  "reflMult": -1.0,
  "reflAdd": 0.0,
  "specMult": 1.0,
  "specAdd": 1.0,
  "specSelect": 1,
  "albedoLevel": 0.045000001788139343262,
  "albedoContrast": 0.97600001096725463867
 },
 "HB_F14_CPT_RIO_BACK_FRAME_05": {
  "reflMult": -1.0,
  "reflAdd": 0.0,
  "specMult": 1.0,
  "specAdd": 1.0,
  "specSelect": 1,
  "albedoLevel": 0.045000001788139343262,
  "albedoContrast": 0.97600001096725463867
 },
 "HB_F14_CPT_RIO_BACK_FRAME_04": {
  "reflMult": -1.0,
  "reflAdd": 0.0,
  "specMult": 1.0,
  "specAdd": 1.0,
  "specSelect": 1,
  "albedoLevel": 0.045000001788139343262,
  "albedoContrast": 0.97600001096725463867
 },
 "HB_F14_CPT_RIO_BACK_FRAME_03": {
  "reflMult": -1.0,
  "reflAdd": 0.0,
  "specMult": 1.0,
  "specAdd": 1.0,
  "specSelect": 1,
  "albedoLevel": 0.045000001788139343262,
  "albedoContrast": 0.97600001096725463867
 },
 "HB_F14_CPT_RIO_rMainPanel": {
  "reflMult": -1.0,
  "reflAdd": 0.0,
  "specMult": 1.0,
  "specAdd": 1.0,
  "specSelect": 1,
  "albedoLevel": 0.045000001788139343262,
  "albedoContrast": 0.97600001096725463867
 },
 "HB_F14_CPT_RANDOMSHIT2": {
  "reflMult": -1.0,
  "reflAdd": 0.0,
  "specMult": 1.0,
  "specAdd": 1.0,
  "specSelect": 1,
  "albedoLevel": 0.045000001788139343262,
  "albedoContrast": 0.97600001096725463867
 },
 "HB_F14_CPT_RIO_rWall": {
  "reflMult": -1.0,
  "reflAdd": 0.0,
  "specMult": 1.0,
  "specAdd": 1.0,
  "specSelect": 1,
  "albedoLevel": 0.045000001788139343262,
  "albedoContrast": 0.97600001096725463867
 },
 "HB_F14_RIO_rPanels": {
  "reflMult": -1.0,
  "reflAdd": 0.0,
  "specMult": 1.0,
  "specAdd": 1.0,
  "specSelect": 1,
  "albedoLevel": 0.045000001788139343262,
  "albedoContrast": 0.97600001096725463867
 },
 "HB_F14_INT_ALR67": {
  "reflMult": -1.0,
  "reflAdd": 0.0,
  "specMult": 1.0,
  "specAdd": 1.0,
  "specSelect": 1,
  "albedoLevel": 0.045000001788139343262,
  "albedoContrast": 0.97600001096725463867
 },
 "HB_F14_CPT_RIO_ROLLERS": {
  "reflMult": -1.0,
  "reflAdd": 0.0,
  "specMult": 1.0,
  "specAdd": 1.0,
  "specSelect": 1,
  "albedoLevel": 0.045000001788139343262,
  "albedoContrast": 0.97600001096725463867
 },
 "HB_F14_CPT_SPECIALGLASS": {
  "reflMult": 0.14000000059604644775,
  "reflAdd": 0.0,
  "specMult": -1.2999999523162841797,
  "specAdd": -1.0240000486373901367,
  "specSelect": 1,
  "albedoLevel": 0.32899999618530273438,
  "albedoContrast": 1.0
 },
 "HB_F14_RIO_rPanels_TRANSP": {
  "reflMult": 1.0,
  "reflAdd": 0.0,
  "specMult": -1.2999999523162841797,
  "specAdd": 1.0,
  "specSelect": 1,
  "albedoLevel": 0.0,
  "albedoContrast": 1.0
 },
 "HB_F14_CPT_ACM_INDIC": {
  "reflMult": -1.0,
  "reflAdd": 0.0,
  "specMult": 1.0,
  "specAdd": 1.0,
  "specSelect": 1,
  "albedoLevel": 0.045000001788139343262,
  "albedoContrast": 0.97600001096725463867
 },
 "HB_F14_CPT_RIO_rBreakers_01": {
  "reflMult": -1.0,
  "reflAdd": 0.0,
  "specMult": 1.0,
  "specAdd": 1.0,
  "specSelect": 1,
  "albedoLevel": 0.045000001788139343262,
  "albedoContrast": 0.97600001096725463867
 },
 "HB_F14_CPT_RIO_LANTIRNPANEL": {
  "reflMult": -1.0,
  "reflAdd": 0.0,
  "specMult": 1.0,
  "specAdd": 1.0,
  "specSelect": 1,
  "albedoLevel": 0.045000001788139343262,
  "albedoContrast": 0.97600001096725463867
 },
 "HB_F14_CPT_RIO_L_BREAKERS_08_W_ALPHA": {
  "reflMult": 1.0,
  "reflAdd": 0.0,
  "specMult": -1.2999999523162841797,
  "specAdd": 1.0,
  "specSelect": 1,
  "albedoLevel": 0.0,
  "albedoContrast": 1.0
 },
 "HB_F14_CPT_RIO_L_BREAKERS_03": {
  "reflMult": -1.0,
  "reflAdd": 0.0,
  "specMult": 1.0,
  "specAdd": 1.0,
  "specSelect": 1,
  "albedoLevel": 0.045000001788139343262,
  "albedoContrast": 0.97600001096725463867
 },
 "HB_F14_CPT_RIO_L_BREAKERS_09": {
  "reflMult": -1.0,
  "reflAdd": 0.0,
  "specMult": 1.0,
  "specAdd": 1.0,
  "specSelect": 1,
  "albedoLevel": 0.045000001788139343262,
  "albedoContrast": 0.97600001096725463867
 },
 "HB_F14_CPT_RIO_BUTTONLIGHTS_RED": {
  "reflMult": 1.0,
  "reflAdd": 0.0,
  "specMult": -1.2999999523162841797,
  "specAdd": 1.0,
  "specSelect": 1,
  "albedoLevel": 0.0,
  "albedoContrast": 1.0
 },
 "HB_F14_CPT_RIO_DDD_BUTTONS": {
  "reflMult": 1.0,
  "reflAdd": 0.0,
  "specMult": -1.2999999523162841797,
  "specAdd": 1.0,
  "specSelect": 1,
  "albedoLevel": 0.0,
  "albedoContrast": 1.0
 },
 "HB_F14_CPT_RIO_L_BREAKERS_02": {
  "reflMult": -1.0,
  "reflAdd": 0.0,
  "specMult": 1.0,
  "specAdd": 1.0,
  "specSelect": 1,
  "albedoLevel": 0.045000001788139343262,
  "albedoContrast": 0.97600001096725463867
 },
 "HB_F14_CPT_RIO_L_BREAKERS_06": {
  "reflMult": -1.0,
  "reflAdd": 0.0,
  "specMult": 1.0,
  "specAdd": 1.0,
  "specSelect": 1,
  "albedoLevel": 0.045000001788139343262,
  "albedoContrast": 0.97600001096725463867
 },
 "HB_F14_CPT_RIO_L_BREAKERS_04": {
  "reflMult": -1.0,
  "reflAdd": 0.0,
  "specMult": 1.0,
  "specAdd": 1.0,
  "specSelect": 1,
  "albedoLevel": 0.045000001788139343262,
  "albedoContrast": 0.97600001096725463867
 },
 "HB_F14_CPT_RIO_rWall_02": {
  "reflMult": -1.0,
  "reflAdd": 0.0,
  "specMult": 1.0,
  "specAdd": 1.0,
  "specSelect": 1,
  "albedoLevel": 0.045000001788139343262,
  "albedoContrast": 0.97600001096725463867
 },
 "HB_F14_CPT_RIO_ANNUNC": {
  "reflMult": 1.0,
  "reflAdd": 0.0,
  "specMult": -1.2999999523162841797,
  "specAdd": 1.0,
  "specSelect": 1,
  "albedoLevel": 0.0,
  "albedoContrast": 1.0
 },
 "HB_F14_PILOT_COMPILED_01_RIO": {
  "reflMult": -1.0,
  "reflAdd": 0.0,
  "specMult": 1.0,
  "specAdd": 1.0,
  "specSelect": 1,
  "albedoLevel": 0.045000001788139343262,
  "albedoContrast": 0.97600001096725463867
 },
 "HB_F14_RIO_ALE39": {
  "reflMult": -1.0,
  "reflAdd": 0.0,
  "specMult": 1.0,
  "specAdd": 1.0,
  "specSelect": 1,
  "albedoLevel": 0.045000001788139343262,
  "albedoContrast": 0.97600001096725463867
 },
 "HB_F14_RIO_ALR_ROLLERS": {
  "reflMult": -1.0,
  "reflAdd": 0.0,
  "specMult": 1.0,
  "specAdd": 1.0,
  "specSelect": 1,
  "albedoLevel": 0.045000001788139343262,
  "albedoContrast": 0.97600001096725463867
 },
 "HB_F14_CPT_GAUGES_RIO": {
  "reflMult": -1.0,
  "reflAdd": 0.0,
  "specMult": 1.0,
  "specAdd": 1.0,
  "specSelect": 1,
  "albedoLevel": 0.045000001788139343262,
  "albedoContrast": 0.97600001096725463867
 },
 "HB_F14_CPT_RIO_ROLLERS_ANIMATED": {
  "reflMult": -1.0,
  "reflAdd": 0.0,
  "specMult": 1.0,
  "specAdd": 1.0,
  "specSelect": 1,
  "albedoLevel": 0.045000001788139343262,
  "albedoContrast": 0.97600001096725463867
 },
 "Underestruct_RIO": {
  "reflMult": -1.0,
  "reflAdd": 0.0,
  "specMult": 1.0,
  "specAdd": 1.0,
  "specSelect": 1,
  "albedoLevel": 0.045000001788139343262,
  "albedoContrast": 0.97600001096725463867
 },
 "HB_F14_CPT_RIO_STICK": {
  "reflMult": -1.0,
  "reflAdd": 0.0,
  "specMult": 1.0,
  "specAdd": 1.0,
  "specSelect": 1,
  "albedoLevel": 0.045000001788139343262,
  "albedoContrast": 0.97600001096725463867
 },
 "RIO_LANTIRN_PANEL_LIGHTS": {
  "reflMult": 1.0,
  "reflAdd": 0.0,
  "specMult": -1.2999999523162841797,
  "specAdd": 1.0,
  "specSelect": 1,
  "albedoLevel": 0.0,
  "albedoContrast": 1.0
 }
}
