simulation_scheme = {
    ["blocks"] = {
        [1] = {
            ["__name"] = "",
            ["__type"] = "wAtmSamplerDescriptor",
            ["__parameters"] = {
            },
        },
        [2] = {
            ["__name"] = "",
            ["__type"] = "wColliderBlockDescriptor",
            ["__parameters"] = {
                ["dt"] = {
                    ["value"] = 0.02,
                },
            },
        },
        [3] = {
            ["__name"] = "warhead",
            ["__type"] = "wWarheadStandardBlockDescriptor",
            ["__parameters"] = {
                ["time_self_destruct"] = {
                },
                ["cumulative_thickness"] = {
                },
                ["cumulative_factor"] = {
                },
                ["caliber"] = {
                },
                ["obj_factors"] = {
                },
                ["piercing_mass"] = {
                },
                ["concrete_factors"] = {
                },
                ["other_factors"] = {
                },
                ["expl_mass"] = {
                },
                ["fantom"] = {
                },
                ["mass"] = {
                },
                ["concrete_obj_factor"] = {
                },
            },
        },
        [4] = {
            ["__name"] = "const",
            ["__type"] = "wBlockConstantsDescriptor",
            ["values"] = {
                [1] = {
                    ["name"] = "double_zero",
                    ["type"] = 1,
                },
                [2] = {
                    ["name"] = "double_one",
                    ["type"] = 1,
                },
            },
            ["__parameters"] = {
                ["double_one"] = {
                    ["value"] = 1,
                },
                ["double_zero"] = {
                    ["value"] = 0,
                },
            },
        },
        [5] = {
            ["outPorts"] = {
            },
            ["inputs"] = {
            },
            ["__parameters"] = {
                ["delay"] = {
                    ["value"] = 1,
                },
                ["File name"] = {
                    ["value"] = "bomb_script.lua",
                },
            },
            ["__type"] = "wBlockLuaDescriptor",
            ["__name"] = "delay",
            ["additional_params"] = {
                [1] = {
                    ["name"] = "delay",
                    ["type"] = 1,
                },
            },
            ["inPorts"] = {
            },
            ["outputs"] = {
                [1] = {
                    ["name"] = "check_obj",
                    ["type"] = 1,
                },
            },
        },
        [6] = {
            ["__name"] = "",
            ["__type"] = "wPowerSourceDescriptor",
            ["__parameters"] = {
                ["work_time_max"] = {
                    ["value"] = 55,
                },
            },
        },
        [7] = {
            ["__name"] = "",
            ["__type"] = "wLaserSpotSeekerDescriptor",
            ["__parameters"] = {
                ["FOV"] = {
                    ["value"] = 0.558,
                },
                ["sensitivity"] = {
                    ["value"] = 0,
                },
                ["DGF"] = {
                    ["value"] = {
                        [1] = 0,
                        [2] = 0.11,
                        [3] = 0.22,
                        [4] = 0.33,
                        [5] = 0.44,
                        [6] = 0.55,
                        [7] = 0.66,
                        [8] = 0.77,
                        [9] = 0.88,
                        [10] = 1,
                    },
                },
                ["delay"] = {
                    ["value"] = 0,
                },
                ["RWF"] = {
                    ["value"] = {
                        [1] = 1,
                        [2] = 1,
                        [3] = 1,
                        [4] = 1,
                        [5] = 1,
                        [6] = 1,
                        [7] = 0.8,
                        [8] = 0.7,
                        [9] = 0.6,
                        [10] = 0.1,
                    },
                },
            },
        },
        [8] = {
            ["__name"] = "bang_bang_autopilot",
            ["__type"] = "wBangBangAutopilotDescriptor",
            ["__parameters"] = {
                ["omegaDumpingK"] = {
                },
                ["dt"] = {
                    ["value"] = 0.02,
                },
            },
        },
        [9] = {
            ["__name"] = "",
            ["__type"] = "wBlockI2ODescriptor<bool CMA double>",
            ["__parameters"] = {
            },
        },
        [10] = {
            ["__name"] = "",
            ["__type"] = "wBlockSummatorDescriptor<double>",
            ["inputs"] = {
                [1] = {
                    ["name"] = "input1",
                    ["coeff"] = -1,
                },
                [2] = {
                    ["name"] = "input2",
                    ["coeff"] = 1,
                },
            },
            ["__parameters"] = {
            },
        },
        [11] = {
            ["__name"] = "fm",
            ["__type"] = "wFMGyrostGuidedWDescriptor",
            ["__parameters"] = {
                ["A"] = {
                },
                ["wind_time"] = {
                },
                ["cx_coeff"] = {
                },
                ["dCydA"] = {
                },
                ["caliber"] = {
                },
                ["dt"] = {
                    ["value"] = 0.02,
                },
                ["I"] = {
                },
                ["mass"] = {
                },
                ["wind_sigma"] = {
                },
                ["lockRoll"] = {
                    ["value"] = 1,
                },
                ["L"] = {
                },
                ["Mw"] = {
                },
                ["Sw"] = {
                },
                ["Ma"] = {
                },
                ["shapeName"] = {
                    ["value"] = "",
                },
                ["finsTau"] = {
                },
                ["maxAoa"] = {
                },
            },
        },
        [12] = {
            ["__name"] = "",
            ["__type"] = "wBlockGo2doubleOntimerDescriptor",
            ["__parameters"] = {
                ["K_t"] = {
                    ["value"] = 2.6,
                },
                ["start_val"] = {
                    ["value"] = 0,
                },
                ["use_start_val"] = {
                    ["value"] = 1,
                },
                ["dt"] = {
                    ["value"] = 0.02,
                },
            },
        },
    },
    ["connections"] = {
        [1] = {
            ["port"] = 1,
            ["input_lead"] = "died",
            ["input_block"] = -666,
            ["output_lead"] = "collision",
            ["output_block"] = 1,
        },
        [2] = {
            ["port"] = 1,
            ["input_lead"] = "id",
            ["input_block"] = 1,
            ["output_lead"] = "id",
            ["output_block"] = -666,
        },
        [3] = {
            ["port"] = 1,
            ["input_lead"] = "explode",
            ["input_block"] = 2,
            ["output_lead"] = "collision",
            ["output_block"] = 1,
        },
        [4] = {
            ["port"] = 1,
            ["input_lead"] = "my_id",
            ["input_block"] = 2,
            ["output_lead"] = "id",
            ["output_block"] = -666,
        },
        [5] = {
            ["port"] = 0,
            ["input_lead"] = "draw_arg_0",
            ["input_block"] = -666,
            ["output_lead"] = "double_zero",
            ["output_block"] = 3,
        },
        [6] = {
            ["port"] = 1,
            ["input_lead"] = "suppress_explosion",
            ["input_block"] = 2,
            ["output_lead"] = "suppress_explosion",
            ["output_block"] = -666,
        },
        [7] = {
            ["port"] = 0,
            ["input_lead"] = "normal",
            ["input_block"] = 2,
            ["output_lead"] = "normal",
            ["output_block"] = 1,
        },
        [8] = {
            ["port"] = 0,
            ["input_lead"] = "check_obj",
            ["input_block"] = 1,
            ["output_lead"] = "check_obj",
            ["output_block"] = 4,
        },
        [9] = {
            ["port"] = 0,
            ["input_lead"] = "obj_id",
            ["input_block"] = 2,
            ["output_lead"] = "object_id",
            ["output_block"] = 1,
        },
        [10] = {
            ["port"] = 0,
            ["input_lead"] = "obj_part_name",
            ["input_block"] = 2,
            ["output_lead"] = "obj_part_name",
            ["output_block"] = 1,
        },
        [11] = {
            ["port"] = 0,
            ["input_lead"] = "pos",
            ["input_block"] = 2,
            ["output_lead"] = "col. pos",
            ["output_block"] = 1,
        },
        [12] = {
            ["port"] = 0,
            ["input_lead"] = "elec_power",
            ["input_block"] = 7,
            ["output_lead"] = "elec_power",
            ["output_block"] = 5,
        },
        [13] = {
            ["port"] = 0,
            ["input_lead"] = "active",
            ["input_block"] = 6,
            ["output_lead"] = "active",
            ["output_block"] = -666,
        },
        [14] = {
            ["port"] = 0,
            ["input_lead"] = "laser_code",
            ["input_block"] = 6,
            ["output_lead"] = "laser_code",
            ["output_block"] = -666,
        },
        [15] = {
            ["port"] = 0,
            ["input_lead"] = "directly_set_target",
            ["input_block"] = 6,
            ["output_lead"] = "target_pos",
            ["output_block"] = -666,
        },
        [16] = {
            ["port"] = 0,
            ["input_lead"] = "have_directly_set_target",
            ["input_block"] = 6,
            ["output_lead"] = "target",
            ["output_block"] = -666,
        },
        [17] = {
            ["port"] = 0,
            ["input_lead"] = "elec_power",
            ["input_block"] = 6,
            ["output_lead"] = "elec_power",
            ["output_block"] = 5,
        },
        [18] = {
            ["port"] = 0,
            ["input_lead"] = "target_LOS",
            ["input_block"] = -666,
            ["output_lead"] = "LOS",
            ["output_block"] = 6,
        },
        [19] = {
            ["port"] = 0,
            ["input_lead"] = "seeker_FOV",
            ["input_block"] = -666,
            ["output_lead"] = "FOV",
            ["output_block"] = 6,
        },
        [20] = {
            ["port"] = 0,
            ["input_lead"] = "target_pos_out",
            ["input_block"] = -666,
            ["output_lead"] = "target_pos",
            ["output_block"] = 6,
        },
        [21] = {
            ["port"] = 0,
            ["input_lead"] = "target_id_out",
            ["input_block"] = -666,
            ["output_lead"] = "target_id",
            ["output_block"] = 6,
        },
        [22] = {
            ["port"] = 0,
            ["input_lead"] = "has_signal",
            ["input_block"] = 7,
            ["output_lead"] = "has_signal",
            ["output_block"] = 6,
        },
        [23] = {
            ["port"] = 0,
            ["input_lead"] = "error",
            ["input_block"] = 7,
            ["output_lead"] = "Gd",
            ["output_block"] = 6,
        },
        [24] = {
            ["port"] = 0,
            ["input_lead"] = "has_signal",
            ["input_block"] = -666,
            ["output_lead"] = "has_signal",
            ["output_block"] = 6,
        },
        [25] = {
            ["port"] = 0,
            ["input_lead"] = "Gd",
            ["input_block"] = -666,
            ["output_lead"] = "Gd",
            ["output_block"] = 6,
        },
        [26] = {
            ["port"] = 0,
            ["input_lead"] = "signal",
            ["input_block"] = -666,
            ["output_lead"] = "has_signal",
            ["output_block"] = 6,
        },
        [27] = {
            ["port"] = 0,
            ["input_lead"] = "target",
            ["input_block"] = 11,
            ["output_lead"] = "output",
            ["output_block"] = 8,
        },
        [28] = {
            ["port"] = 0,
            ["input_lead"] = "draw_arg_2",
            ["input_block"] = -666,
            ["output_lead"] = "output",
            ["output_block"] = 9,
        },
        [29] = {
            ["port"] = 0,
            ["input_lead"] = "input1",
            ["input_block"] = 9,
            ["output_lead"] = "output",
            ["output_block"] = 11,
        },
        [30] = {
            ["port"] = 0,
            ["input_lead"] = "input2",
            ["input_block"] = 9,
            ["output_lead"] = "double_one",
            ["output_block"] = 3,
        },
        [31] = {
            ["port"] = 0,
            ["input_lead"] = "rho",
            ["input_block"] = 10,
            ["output_lead"] = "rho",
            ["output_block"] = 0,
        },
        [32] = {
            ["port"] = 0,
            ["input_lead"] = "M",
            ["input_block"] = 10,
            ["output_lead"] = "M",
            ["output_block"] = 0,
        },
        [33] = {
            ["port"] = 0,
            ["input_lead"] = "wind",
            ["input_block"] = 10,
            ["output_lead"] = "wind",
            ["output_block"] = 0,
        },
        [34] = {
            ["port"] = 0,
            ["input_lead"] = "thrust",
            ["input_block"] = 10,
            ["output_lead"] = "double_zero",
            ["output_block"] = 3,
        },
        [35] = {
            ["port"] = 0,
            ["input_lead"] = "fuel_mass",
            ["input_block"] = 10,
            ["output_lead"] = "double_zero",
            ["output_block"] = 3,
        },
        [36] = {
            ["port"] = 0,
            ["input_lead"] = "has_signal",
            ["input_block"] = 10,
            ["output_lead"] = "signal",
            ["output_block"] = 7,
        },
        [37] = {
            ["port"] = 0,
            ["input_lead"] = "fins",
            ["input_block"] = 10,
            ["output_lead"] = "fins",
            ["output_block"] = 7,
        },
        [38] = {
            ["port"] = 0,
            ["input_lead"] = "pos",
            ["input_block"] = 0,
            ["output_lead"] = "pos",
            ["output_block"] = 10,
        },
        [39] = {
            ["port"] = 0,
            ["input_lead"] = "pos",
            ["input_block"] = 1,
            ["output_lead"] = "pos",
            ["output_block"] = 10,
        },
        [40] = {
            ["port"] = 0,
            ["input_lead"] = "pos",
            ["input_block"] = 6,
            ["output_lead"] = "pos",
            ["output_block"] = 10,
        },
        [41] = {
            ["port"] = 0,
            ["input_lead"] = "rot",
            ["input_block"] = -666,
            ["output_lead"] = "rot",
            ["output_block"] = 10,
        },
        [42] = {
            ["port"] = 0,
            ["input_lead"] = "vel",
            ["input_block"] = -666,
            ["output_lead"] = "vel",
            ["output_block"] = 10,
        },
        [43] = {
            ["port"] = 0,
            ["input_lead"] = "vel",
            ["input_block"] = 2,
            ["output_lead"] = "vel",
            ["output_block"] = 10,
        },
        [44] = {
            ["port"] = 0,
            ["input_lead"] = "omega",
            ["input_block"] = 7,
            ["output_lead"] = "omega",
            ["output_block"] = 10,
        },
        [45] = {
            ["port"] = 0,
            ["input_lead"] = "omega",
            ["input_block"] = -666,
            ["output_lead"] = "omega",
            ["output_block"] = 10,
        },
        [46] = {
            ["port"] = 0,
            ["input_lead"] = "seeker_rot",
            ["input_block"] = -666,
            ["output_lead"] = "vel_rot",
            ["output_block"] = 10,
        },
        [47] = {
            ["port"] = 0,
            ["input_lead"] = "rot",
            ["input_block"] = 6,
            ["output_lead"] = "vel_rot",
            ["output_block"] = 10,
        },
        [48] = {
            ["port"] = 0,
            ["input_lead"] = "pos",
            ["input_block"] = -666,
            ["output_lead"] = "draw_pos",
            ["output_block"] = 10,
        },
        [49] = {
            ["port"] = 0,
            ["input_lead"] = "An",
            ["input_block"] = -666,
            ["output_lead"] = "An",
            ["output_block"] = 10,
        },
        [50] = {
            ["port"] = 0,
            ["input_lead"] = "dbg_AoA",
            ["input_block"] = -666,
            ["output_lead"] = "dbg_AoA",
            ["output_block"] = 10,
        },
        [51] = {
            ["port"] = 0,
            ["input_lead"] = "dbg_Thrust",
            ["input_block"] = -666,
            ["output_lead"] = "dbg_Thrust",
            ["output_block"] = 10,
        },
        [52] = {
            ["port"] = 0,
            ["input_lead"] = "dbg_Mass",
            ["input_block"] = -666,
            ["output_lead"] = "dbg_Mass",
            ["output_block"] = 10,
        },
        [53] = {
            ["port"] = 0,
            ["input_lead"] = "dbg_N",
            ["input_block"] = -666,
            ["output_lead"] = "dbg_N",
            ["output_block"] = 10,
        },
        [54] = {
            ["port"] = 0,
            ["input_lead"] = "check",
            ["input_block"] = 1,
            ["output_lead"] = "wings_out",
            ["output_block"] = 10,
        },
        [55] = {
            ["port"] = 0,
            ["input_lead"] = "input",
            ["input_block"] = 8,
            ["output_lead"] = "wings_out",
            ["output_block"] = 10,
        },
        [56] = {
            ["port"] = 1,
            ["input_lead"] = "vel",
            ["input_block"] = 10,
            ["output_lead"] = "vel",
            ["output_block"] = -666,
        },
        [57] = {
            ["port"] = 1,
            ["input_lead"] = "pos",
            ["input_block"] = 10,
            ["output_lead"] = "pos",
            ["output_block"] = -666,
        },
        [58] = {
            ["port"] = 1,
            ["input_lead"] = "rot",
            ["input_block"] = 10,
            ["output_lead"] = "rot",
            ["output_block"] = -666,
        },
        [59] = {
            ["port"] = 1,
            ["input_lead"] = "omega",
            ["input_block"] = 10,
            ["output_lead"] = "omega",
            ["output_block"] = -666,
        },
        [60] = {
            ["port"] = 1,
            ["input_lead"] = "rail",
            ["input_block"] = 10,
            ["output_lead"] = "constraint",
            ["output_block"] = -666,
        },
    },
    ["io"] = {
        ["outputPorts"] = {
            [1] = {
                ["name"] = "pos",
                ["type"] = 3,
            },
            [2] = {
                ["name"] = "vel",
                ["type"] = 3,
            },
            [3] = {
                ["name"] = "rot",
                ["type"] = 4,
            },
            [4] = {
                ["name"] = "omega",
                ["type"] = 3,
            },
            [5] = {
                ["name"] = "id",["type"] = 6,
            },
            [6] = {
                ["name"] = "owner",
                ["type"] = 5,
            },
            [7] = {
                ["name"] = "suppress_explosion",
                ["type"] = 1,
            },
            [8] = {
                ["name"] = "constraint",
                ["type"] = 5,
            },
        },
        ["outputWires"] = {
            [1] = {
                ["name"] = "active",
                ["type"] = 1,
            },
            [2] = {
                ["name"] = "laser_code",
                ["type"] = 6,
            },
            [3] = {
                ["name"] = "target",
                ["type"] = 1,
            },
            [4] = {
                ["name"] = "target_pos",
                ["type"] = 3,
            },
        },
        ["inputPorts"] = {
            [1] = {
                ["name"] = "died",
                ["type"] = 1,
            },
        },
        ["inputWires"] = {
            [1] = {
                ["name"] = "pos",
                ["type"] = 3,
            },
            [2] = {
                ["name"] = "vel",
                ["type"] = 3,
            },
            [3] = {
                ["name"] = "omega",
                ["type"] = 3,
            },
            [4] = {
                ["name"] = "rot",
                ["type"] = 4,
            },
            [5] = {
                ["name"] = "draw_arg_0",
                ["type"] = 2,
            },
            [6] = {
                ["name"] = "seeker_rot",
                ["type"] = 4,
            },
            [7] = {
                ["name"] = "seeker_FOV",
                ["type"] = 2,
            },
            [8] = {
                ["name"] = "target_LOS",
                ["type"] = 3,
            },
            [9] = {
                ["name"] = "has_signal",
                ["type"] = 1,
            },
            [10] = {
                ["name"] = "target_id_out",
                ["type"] = 6,
            },
            [11] = {
                ["name"] = "target_pos_out",
                ["type"] = 3,
            },
            [12] = {
                ["name"] = "An",
                ["type"] = 3,
            },
            [13] = {
                ["name"] = "Gd",
                ["type"] = 3,
            },
            [14] = {
                ["name"] = "signal",
                ["type"] = 1,
            },
            [15] = {
                ["name"] = "dbg_AoA",
                ["type"] = 3,
            },
            [16] = {
                ["name"] = "dbg_Thrust",
                ["type"] = 2,
            },
            [17] = {
                ["name"] = "dbg_Mass",
                ["type"] = 2,
            },
            [18] = {
                ["name"] = "dbg_N",
                ["type"] = 2,
            },
            [19] = {
                ["name"] = "draw_arg_2",
                ["type"] = 2,
            },
        },
    },
}